{
	"ping": {
		"on": "message",
		"alias": [
			"p"
		],
		"name": "ping",
		"desc":	"Ping the bot, returns time in milliseconds",
		"admin": false,
		"args": {}
	},
	"avatar": {
		"on": "message",
		"alias": [
			"ava"
		],
		"name": "avatar",
		"desc":	"Returns a user or your avatar URL",
		"admin": false,
		"args": {
			"target":"[@mention_or_user ID]"
		}
	},
	"uptime": {
		"on": "message",
		"alias": [
			"up",
			"upt"
		],
		"name": "uptime",
		"desc":	"Returns the uptime of the bot",
		"admin": false,
		"args": {}
	},
	"help": {
		"on": "message",
		"alias": [
			"h"
		],
		 "name": "help",
		"desc": "Returns help message of all commands or of a specific command",
		"admin": false,
		"args": {
			"command": "[command_name]"
		}
	},
	"eval": {
		"on": "message",
		"alias": [
			"ev",
			"eva"
		],
		"name": "eval",
		"desc":	"Runs the JavaScript eval command [DANGEROUS]",
		"admin": true,
		"args": {
			"code": "code_to_execute"
		}
	},
	"botsend": {
		"on": "message",
		"alias": [
			"sendasbot"
		],
		"name": "botsend",
		"desc":	"Send a message to a channel or user as the bot",
		"admin": true,
		"args": {
			"target": "target",
			"message": "message"
		}
	},
	"snowflake": {
		"on": "message",
		"alias": [
			"sf",
			"snowflakeinfo"
		],
		"name": "snowflake",
		"desc":	"Returns the snowflake info on a user ID",
		"admin": true,
		"args": {
			"target": "user_id"
		}
	},
	"hsend" : {
		"on":"message",
		"alias": [
			"hchat",
			"hackmudchat",
			"sendhackmud"
		],
		"name": "hsend",
		"desc": "Send a message to hackmud channel",
		"admin": false,
		"args": {
			"username": "username",
			"channel": "channel",
			"hmsg": "message_to_send"
		}
	},
	"hackmud_chats": {
		"on": "interval",
		"interval": 5000,
		"alias": [],
		"name": "hackmud_chats",
		"desc": "Periodically logs hackmud messages from in-game",
		"admin": true,
		"args": {}
	}
}
